EESchema Schematic File Version 4
EELAYER 30 0
EELAYER END
$Descr A4 11693 8268
encoding utf-8
Sheet 1 1
Title ""
Date ""
Rev ""
Comp ""
Comment1 ""
Comment2 ""
Comment3 ""
Comment4 ""
$EndDescr
$Comp
L Connector:USB_C_Receptacle_USB2.0 P1
U 1 1 5E430235
P 10200 3200
F 0 "P1" H 9770 3047 50  0000 R CNN
F 1 "USB_C_Plug" H 9770 3138 50  0000 R CNN
F 2 "Connector_USB:USB_C_Receptacle_Amphenol_12401548E4-2A" H 10350 3200 50  0001 C CNN
F 3 "https://www.usb.org/sites/default/files/documents/usb_type-c.zip" H 10350 3200 50  0001 C CNN
	1    10200 3200
	-1   0    0    1   
$EndComp
$Comp
L Logic_LevelTranslator:74LVC2T45DC U1
U 1 1 5E443CD1
P 1650 2950
F 0 "U1" H 1650 2361 50  0000 C CNN
F 1 "74LVC2T45DC" H 1650 2270 50  0000 C CNN
F 2 "Package_SO:VSSOP-8_2.3x2mm_P0.5mm" H 1650 2100 50  0001 C CNN
F 3 "https://assets.nexperia.com/documents/data-sheet/74LVC_LVCH2T45.pdf" H 1900 2700 50  0001 C CNN
	1    1650 2950
	1    0    0    -1  
$EndComp
$Comp
L Logic_LevelTranslator:74LVC2T45DC U2
U 1 1 5E444F0F
P 1650 4450
F 0 "U2" H 1650 3861 50  0000 C CNN
F 1 "74LVC2T45DC" H 1650 3770 50  0000 C CNN
F 2 "Package_SO:VSSOP-8_2.3x2mm_P0.5mm" H 1650 3600 50  0001 C CNN
F 3 "https://assets.nexperia.com/documents/data-sheet/74LVC_LVCH2T45.pdf" H 1900 4200 50  0001 C CNN
	1    1650 4450
	1    0    0    -1  
$EndComp
$Comp
L Logic_LevelTranslator:74LVC2T45DC U3
U 1 1 5E445B24
P 1650 5950
F 0 "U3" H 1650 5361 50  0000 C CNN
F 1 "74LVC2T45DC" H 1650 5270 50  0000 C CNN
F 2 "Package_SO:VSSOP-8_2.3x2mm_P0.5mm" H 1650 5100 50  0001 C CNN
F 3 "https://assets.nexperia.com/documents/data-sheet/74LVC_LVCH2T45.pdf" H 1900 5700 50  0001 C CNN
	1    1650 5950
	1    0    0    -1  
$EndComp
$Comp
L Power_Protection:USBLC6-2SC6 U5
U 1 1 5E446B70
P 8750 3000
F 0 "U5" H 8750 2319 50  0000 C CNN
F 1 "USBLC6-2SC6" H 8750 2410 50  0000 C CNN
F 2 "Package_TO_SOT_SMD:SOT-23-6" H 8000 3400 50  0001 C CNN
F 3 "http://www2.st.com/resource/en/datasheet/CD00050750.pdf" H 8950 3350 50  0001 C CNN
	1    8750 3000
	0    1    1    0   
$EndComp
$Comp
L Memory_Flash:AT45DB161D-SU U7
U 1 1 5E44CAF0
P 9950 5150
F 0 "U7" H 10394 5196 50  0000 L CNN
F 1 "AT45DB161D-SU" H 10394 5105 50  0000 L CNN
F 2 "Package_SO:SOIC-8_5.275x5.275mm_P1.27mm" H 11100 4550 50  0001 C CNN
F 3 "https://www.adestotech.com/wp-content/uploads/doc3500.pdf" H 9950 5150 50  0001 C CNN
	1    9950 5150
	1    0    0    -1  
$EndComp
Wire Wire Line
	9250 3000 9300 3000
Text Label 4900 5100 0    50   ~ 0
DM1
$Comp
L power:+5V #PWR0101
U 1 1 5E4C41D4
P 9050 3800
F 0 "#PWR0101" H 9050 3650 50  0001 C CNN
F 1 "+5V" V 9065 3928 50  0000 L CNN
F 2 "" H 9050 3800 50  0001 C CNN
F 3 "" H 9050 3800 50  0001 C CNN
	1    9050 3800
	0    -1   -1   0   
$EndComp
$Comp
L MCU_ST_STM32F4:STM32F412RGTx U4
U 1 1 5E4FC29E
P 4200 5500
F 0 "U4" H 4200 3611 50  0000 C CNN
F 1 "STM32F412CGUx" H 4200 3520 50  0000 C CNN
F 2 "Package_QFP:LQFP-64_10x10mm_P0.5mm" H 3600 4000 50  0001 R CNN
F 3 "http://www.st.com/st-web-ui/static/active/en/resource/technical/document/datasheet/DM00213872.pdf" H 4200 5500 50  0001 C CNN
	1    4200 5500
	1    0    0    -1  
$EndComp
$Comp
L BlackMagicProbe-rescue:SWD-dim J1
U 1 1 5E52BE8C
P 1550 1700
F 0 "J1" H 1725 2475 50  0000 C CNN
F 1 "SWD" H 1725 2384 50  0000 C CNN
F 2 "Connector_PinHeader_1.27mm:PinHeader_2x05_P1.27mm_Vertical_SMD" H 1550 1700 50  0001 C CNN
F 3 "" H 1550 1700 50  0001 C CNN
	1    1550 1700
	1    0    0    -1  
$EndComp
$Comp
L BlackMagicProbe-rescue:SWD-dim J2
U 1 1 5E530394
P 3750 1700
F 0 "J2" H 3925 2475 50  0000 C CNN
F 1 "SWD" H 3925 2384 50  0000 C CNN
F 2 "Connector_PinHeader_1.27mm:PinHeader_2x05_P1.27mm_Vertical_SMD" H 3750 1700 50  0001 C CNN
F 3 "" H 3750 1700 50  0001 C CNN
	1    3750 1700
	1    0    0    -1  
$EndComp
Wire Wire Line
	9600 3800 9050 3800
$Comp
L Device:R R20
U 1 1 5E55E659
P 9550 3800
F 0 "R20" H 9620 3846 50  0000 L CNN
F 1 "5K1" H 9620 3755 50  0000 L CNN
F 2 "Resistor_SMD:R_0603_1608Metric_Pad1.05x0.95mm_HandSolder" V 9480 3800 50  0001 C CNN
F 3 "~" H 9550 3800 50  0001 C CNN
	1    9550 3800
	1    0    0    -1  
$EndComp
$Comp
L Device:R R19
U 1 1 5E55EE4B
P 9300 3800
F 0 "R19" H 9370 3846 50  0000 L CNN
F 1 "5K1" H 9370 3755 50  0000 L CNN
F 2 "Resistor_SMD:R_0603_1608Metric_Pad1.05x0.95mm_HandSolder" V 9230 3800 50  0001 C CNN
F 3 "~" H 9300 3800 50  0001 C CNN
	1    9300 3800
	1    0    0    -1  
$EndComp
$Comp
L power:GND #PWR0102
U 1 1 5E560F36
P 10200 2300
F 0 "#PWR0102" H 10200 2050 50  0001 C CNN
F 1 "GND" H 10205 2127 50  0000 C CNN
F 2 "" H 10200 2300 50  0001 C CNN
F 3 "" H 10200 2300 50  0001 C CNN
	1    10200 2300
	-1   0    0    1   
$EndComp
Connection ~ 10200 2300
$Comp
L power:GND #PWR0103
U 1 1 5E562457
P 9550 3950
F 0 "#PWR0103" H 9550 3700 50  0001 C CNN
F 1 "GND" H 9555 3777 50  0000 C CNN
F 2 "" H 9550 3950 50  0001 C CNN
F 3 "" H 9550 3950 50  0001 C CNN
	1    9550 3950
	1    0    0    -1  
$EndComp
Wire Wire Line
	9550 3950 9300 3950
Connection ~ 9550 3950
Wire Wire Line
	9300 3650 9300 3500
Wire Wire Line
	9300 3500 9600 3500
Wire Wire Line
	9550 3650 9550 3600
Wire Wire Line
	9550 3600 9600 3600
Wire Wire Line
	9600 3300 9600 3200
Wire Wire Line
	9600 3100 9600 3000
Wire Wire Line
	8250 2300 8250 3000
Wire Wire Line
	8250 2300 10200 2300
Wire Wire Line
	9300 3000 9300 3450
Wire Wire Line
	9300 3450 9050 3450
Wire Wire Line
	9050 3450 9050 3800
Connection ~ 9050 3800
Wire Wire Line
	9600 3300 9100 3300
Wire Wire Line
	9100 3300 9100 3350
Wire Wire Line
	9100 3350 8950 3350
Wire Wire Line
	8950 3350 8950 3500
Wire Wire Line
	8950 3500 8850 3500
Connection ~ 9600 3300
Wire Wire Line
	9600 3000 9400 3000
Wire Wire Line
	9400 2500 8850 2500
Wire Wire Line
	9400 2500 9400 3000
Connection ~ 9600 3000
Text Label 4900 5300 0    50   ~ 0
SWDIO
Text Label 4900 6000 0    50   ~ 0
SWO
$Comp
L Device:R R8
U 1 1 5E58BED6
P 3200 3850
F 0 "R8" H 3270 3896 50  0000 L CNN
F 1 "10K" H 3270 3805 50  0000 L CNN
F 2 "Resistor_SMD:R_0603_1608Metric_Pad1.05x0.95mm_HandSolder" V 3130 3850 50  0001 C CNN
F 3 "~" H 3200 3850 50  0001 C CNN
	1    3200 3850
	1    0    0    -1  
$EndComp
$Comp
L Device:C C8
U 1 1 5E58C2FF
P 3200 4150
F 0 "C8" H 3315 4196 50  0000 L CNN
F 1 "100n" H 3315 4105 50  0000 L CNN
F 2 "Capacitor_SMD:C_0603_1608Metric_Pad1.05x0.95mm_HandSolder" H 3238 4000 50  0001 C CNN
F 3 "~" H 3200 4150 50  0001 C CNN
	1    3200 4150
	1    0    0    -1  
$EndComp
Text Label 4900 5200 0    50   ~ 0
DP1
Text Label 5100 1150 0    50   ~ 0
SWDIO
Text Label 5100 1250 0    50   ~ 0
SWCLK
Text Label 4750 1350 0    50   ~ 0
SWO
Text Label 4900 5000 0    50   ~ 0
RXD
Text Label 4900 4900 0    50   ~ 0
TXD
Text Label 4750 1450 0    50   ~ 0
TXD
Text Label 3200 1450 2    50   ~ 0
RXD
$Comp
L power:+3.3V #PWR0104
U 1 1 5E5ACA87
P 3500 1150
F 0 "#PWR0104" H 3500 1000 50  0001 C CNN
F 1 "+3.3V" H 3515 1323 50  0000 C CNN
F 2 "" H 3500 1150 50  0001 C CNN
F 3 "" H 3500 1150 50  0001 C CNN
	1    3500 1150
	1    0    0    -1  
$EndComp
$Comp
L power:GND #PWR0105
U 1 1 5E5B0BC4
P 3150 1550
F 0 "#PWR0105" H 3150 1300 50  0001 C CNN
F 1 "GND" H 3155 1377 50  0000 C CNN
F 2 "" H 3150 1550 50  0001 C CNN
F 3 "" H 3150 1550 50  0001 C CNN
	1    3150 1550
	1    0    0    -1  
$EndComp
Wire Wire Line
	3500 1550 3150 1550
Wire Wire Line
	3500 1350 3150 1350
Wire Wire Line
	3150 1350 3150 1550
Connection ~ 3150 1550
Wire Wire Line
	3500 1250 3150 1250
Wire Wire Line
	3150 1250 3150 1350
Connection ~ 3150 1350
$Comp
L power:GND #PWR0106
U 1 1 5E5B759A
P 3200 4300
F 0 "#PWR0106" H 3200 4050 50  0001 C CNN
F 1 "GND" H 3205 4127 50  0000 C CNN
F 2 "" H 3200 4300 50  0001 C CNN
F 3 "" H 3200 4300 50  0001 C CNN
	1    3200 4300
	1    0    0    -1  
$EndComp
Wire Wire Line
	3500 4200 3400 4200
Wire Wire Line
	3400 4200 3400 4300
Wire Wire Line
	3400 4300 3200 4300
Connection ~ 3200 4300
Wire Wire Line
	3500 4000 3200 4000
Connection ~ 3200 4000
Text Label 2550 1450 0    50   ~ 0
TTXD
Text Label 1000 1450 2    50   ~ 0
TRXD
Text Label 4900 4700 0    50   ~ 0
TRST_SENSE
Text Label 4900 4600 0    50   ~ 0
iTSWO
Text Label 2550 1350 0    50   ~ 0
TSWO
Text Label 8400 3500 0    50   ~ 0
DM1
Text Label 8450 2500 0    50   ~ 0
DP1
Text Label 4900 4200 0    50   ~ 0
oTRXD
Text Label 4900 4300 0    50   ~ 0
iTTXD
Wire Wire Line
	8650 3500 8400 3500
Wire Wire Line
	8450 2500 8650 2500
Text Label 4900 4500 0    50   ~ 0
oTSWCLK
Text Label 2550 1250 0    50   ~ 0
TSWCLK
Text Label 4900 4400 0    50   ~ 0
ioTSWDIO
Text Label 2550 1150 0    50   ~ 0
TSWDIO
Text Label 3500 5900 2    50   ~ 0
oTNRST
Text Label 4900 4100 0    50   ~ 0
TSWDIO_DIR
$Comp
L power:+VSW #PWR0107
U 1 1 5E4E4E32
P 1300 1150
F 0 "#PWR0107" H 1300 1000 50  0001 C CNN
F 1 "+VSW" H 1315 1323 50  0000 C CNN
F 2 "" H 1300 1150 50  0001 C CNN
F 3 "" H 1300 1150 50  0001 C CNN
	1    1300 1150
	1    0    0    -1  
$EndComp
$Comp
L power:GND #PWR0108
U 1 1 5E4E6253
P 950 1550
F 0 "#PWR0108" H 950 1300 50  0001 C CNN
F 1 "GND" H 955 1377 50  0000 C CNN
F 2 "" H 950 1550 50  0001 C CNN
F 3 "" H 950 1550 50  0001 C CNN
	1    950  1550
	1    0    0    -1  
$EndComp
Wire Wire Line
	950  1550 1300 1550
Wire Wire Line
	950  1550 950  1350
Wire Wire Line
	950  1350 1300 1350
Connection ~ 950  1550
Wire Wire Line
	1300 1250 950  1250
Wire Wire Line
	950  1250 950  1350
Connection ~ 950  1350
$Comp
L power:+VSW #PWR0109
U 1 1 5E4F6309
P 1550 2450
F 0 "#PWR0109" H 1550 2300 50  0001 C CNN
F 1 "+VSW" H 1565 2623 50  0000 C CNN
F 2 "" H 1550 2450 50  0001 C CNN
F 3 "" H 1550 2450 50  0001 C CNN
	1    1550 2450
	1    0    0    -1  
$EndComp
$Comp
L power:+VSW #PWR0110
U 1 1 5E4F7E79
P 1550 3950
F 0 "#PWR0110" H 1550 3800 50  0001 C CNN
F 1 "+VSW" H 1565 4123 50  0000 C CNN
F 2 "" H 1550 3950 50  0001 C CNN
F 3 "" H 1550 3950 50  0001 C CNN
	1    1550 3950
	1    0    0    -1  
$EndComp
$Comp
L power:+VSW #PWR0111
U 1 1 5E4FDFE8
P 1550 5450
F 0 "#PWR0111" H 1550 5300 50  0001 C CNN
F 1 "+VSW" H 1565 5623 50  0000 C CNN
F 2 "" H 1550 5450 50  0001 C CNN
F 3 "" H 1550 5450 50  0001 C CNN
	1    1550 5450
	1    0    0    -1  
$EndComp
$Comp
L power:+3.3V #PWR0112
U 1 1 5E504AA5
P 1750 2450
F 0 "#PWR0112" H 1750 2300 50  0001 C CNN
F 1 "+3.3V" H 1765 2623 50  0000 C CNN
F 2 "" H 1750 2450 50  0001 C CNN
F 3 "" H 1750 2450 50  0001 C CNN
	1    1750 2450
	1    0    0    -1  
$EndComp
$Comp
L power:+3.3V #PWR0113
U 1 1 5E5058DC
P 1750 3950
F 0 "#PWR0113" H 1750 3800 50  0001 C CNN
F 1 "+3.3V" H 1765 4123 50  0000 C CNN
F 2 "" H 1750 3950 50  0001 C CNN
F 3 "" H 1750 3950 50  0001 C CNN
	1    1750 3950
	1    0    0    -1  
$EndComp
$Comp
L power:+3.3V #PWR0114
U 1 1 5E50671D
P 1750 5450
F 0 "#PWR0114" H 1750 5300 50  0001 C CNN
F 1 "+3.3V" H 1765 5623 50  0000 C CNN
F 2 "" H 1750 5450 50  0001 C CNN
F 3 "" H 1750 5450 50  0001 C CNN
	1    1750 5450
	1    0    0    -1  
$EndComp
Text Label 4900 5400 0    50   ~ 0
SWCLK
Text Label 1250 3250 2    50   ~ 0
TSWDIO_DIR
Text Label 2050 2850 0    50   ~ 0
ioTSWDIO
Text Label 1250 2850 2    50   ~ 0
TSWDIO
$Comp
L power:GND #PWR0115
U 1 1 5E51A5EA
P 1250 3050
F 0 "#PWR0115" H 1250 2800 50  0001 C CNN
F 1 "GND" H 1255 2877 50  0000 C CNN
F 2 "" H 1250 3050 50  0001 C CNN
F 3 "" H 1250 3050 50  0001 C CNN
	1    1250 3050
	0    1    1    0   
$EndComp
$Comp
L power:GND #PWR0116
U 1 1 5E51B22E
P 2050 3050
F 0 "#PWR0116" H 2050 2800 50  0001 C CNN
F 1 "GND" H 2055 2877 50  0000 C CNN
F 2 "" H 2050 3050 50  0001 C CNN
F 3 "" H 2050 3050 50  0001 C CNN
	1    2050 3050
	0    -1   -1   0   
$EndComp
Text Label 2050 4350 0    50   ~ 0
iTTXD
Text Label 2050 4550 0    50   ~ 0
iTSWO
Text Label 2050 5850 0    50   ~ 0
oTSWCLK
Text Label 2050 6050 0    50   ~ 0
oTRXD
Text Label 2450 1550 0    50   ~ 0
TNRST
Text Label 1250 4350 2    50   ~ 0
TTXD
Text Label 1250 4550 2    50   ~ 0
TSWO
Text Label 1250 6050 2    50   ~ 0
TRXD
Text Label 1250 5850 2    50   ~ 0
TSWCLK
$Comp
L power:GND #PWR0117
U 1 1 5E550500
P 1250 6450
F 0 "#PWR0117" H 1250 6200 50  0001 C CNN
F 1 "GND" H 1255 6277 50  0000 C CNN
F 2 "" H 1250 6450 50  0001 C CNN
F 3 "" H 1250 6450 50  0001 C CNN
	1    1250 6450
	1    0    0    -1  
$EndComp
Wire Wire Line
	1250 6450 1650 6450
$Comp
L power:GND #PWR0118
U 1 1 5E55250C
P 1250 4950
F 0 "#PWR0118" H 1250 4700 50  0001 C CNN
F 1 "GND" H 1255 4777 50  0000 C CNN
F 2 "" H 1250 4950 50  0001 C CNN
F 3 "" H 1250 4950 50  0001 C CNN
	1    1250 4950
	1    0    0    -1  
$EndComp
Wire Wire Line
	1250 4950 1650 4950
$Comp
L power:GND #PWR0119
U 1 1 5E5544D7
P 1250 3450
F 0 "#PWR0119" H 1250 3200 50  0001 C CNN
F 1 "GND" H 1255 3277 50  0000 C CNN
F 2 "" H 1250 3450 50  0001 C CNN
F 3 "" H 1250 3450 50  0001 C CNN
	1    1250 3450
	1    0    0    -1  
$EndComp
Wire Wire Line
	1250 3450 1650 3450
Wire Wire Line
	1250 6250 1250 6450
Connection ~ 1250 6450
$Comp
L power:+3.3V #PWR0120
U 1 1 5E55E76E
P 1250 4750
F 0 "#PWR0120" H 1250 4600 50  0001 C CNN
F 1 "+3.3V" H 1265 4923 50  0000 C CNN
F 2 "" H 1250 4750 50  0001 C CNN
F 3 "" H 1250 4750 50  0001 C CNN
	1    1250 4750
	0    -1   -1   0   
$EndComp
$Comp
L Transistor_FET:BSS84 Q3
U 1 1 5E571722
P 5000 2850
F 0 "Q3" H 5204 2896 50  0000 L CNN
F 1 "BSS84" H 5204 2805 50  0000 L CNN
F 2 "Package_TO_SOT_SMD:SOT-23" H 5200 2775 50  0001 L CIN
F 3 "http://assets.nexperia.com/documents/data-sheet/BSS84.pdf" H 5000 2850 50  0001 L CNN
	1    5000 2850
	1    0    0    -1  
$EndComp
$Comp
L Transistor_FET:BSS84 Q4
U 1 1 5E5776D2
P 5950 2850
F 0 "Q4" H 6155 2804 50  0000 L CNN
F 1 "BSS84" H 6155 2895 50  0000 L CNN
F 2 "Package_TO_SOT_SMD:SOT-23" H 6150 2775 50  0001 L CIN
F 3 "http://assets.nexperia.com/documents/data-sheet/BSS84.pdf" H 5950 2850 50  0001 L CNN
	1    5950 2850
	-1   0    0    1   
$EndComp
Text Label 4000 2650 0    50   ~ 0
TRST_SENSE
$Comp
L Device:R R7
U 1 1 5E5827F7
P 3150 2500
F 0 "R7" H 3220 2546 50  0000 L CNN
F 1 "10K" H 3220 2455 50  0000 L CNN
F 2 "Resistor_SMD:R_0603_1608Metric_Pad1.05x0.95mm_HandSolder" V 3080 2500 50  0001 C CNN
F 3 "~" H 3150 2500 50  0001 C CNN
	1    3150 2500
	1    0    0    -1  
$EndComp
$Comp
L power:+VSW #PWR0121
U 1 1 5E58BF3F
P 3150 2350
F 0 "#PWR0121" H 3150 2200 50  0001 C CNN
F 1 "+VSW" H 3165 2523 50  0000 C CNN
F 2 "" H 3150 2350 50  0001 C CNN
F 3 "" H 3150 2350 50  0001 C CNN
	1    3150 2350
	1    0    0    -1  
$EndComp
Text Label 4300 2850 0    50   ~ 0
TNRST
Text Label 2850 2650 2    50   ~ 0
TNRST
Wire Wire Line
	3150 2650 2850 2650
Text Label 2850 2850 2    50   ~ 0
oTNRST
$Comp
L power:GND #PWR0122
U 1 1 5E599A58
P 3150 3050
F 0 "#PWR0122" H 3150 2800 50  0001 C CNN
F 1 "GND" H 3155 2877 50  0000 C CNN
F 2 "" H 3150 3050 50  0001 C CNN
F 3 "" H 3150 3050 50  0001 C CNN
	1    3150 3050
	1    0    0    -1  
$EndComp
$Comp
L power:GND #PWR0123
U 1 1 5E59AFFB
P 4000 3050
F 0 "#PWR0123" H 4000 2800 50  0001 C CNN
F 1 "GND" H 4005 2877 50  0000 C CNN
F 2 "" H 4000 3050 50  0001 C CNN
F 3 "" H 4000 3050 50  0001 C CNN
	1    4000 3050
	1    0    0    -1  
$EndComp
$Comp
L Transistor_FET:BSS138 Q1
U 1 1 5E59DDB2
P 3050 2850
F 0 "Q1" H 3254 2896 50  0000 L CNN
F 1 "BSS138" H 3254 2805 50  0000 L CNN
F 2 "Package_TO_SOT_SMD:SOT-23" H 3250 2775 50  0001 L CIN
F 3 "https://www.fairchildsemi.com/datasheets/BS/BSS138.pdf" H 3050 2850 50  0001 L CNN
	1    3050 2850
	1    0    0    -1  
$EndComp
Connection ~ 3150 2650
$Comp
L Transistor_FET:BSS138 Q2
U 1 1 5E5A60EE
P 4100 2850
F 0 "Q2" H 4305 2896 50  0000 L CNN
F 1 "BSS138" H 4305 2805 50  0000 L CNN
F 2 "Package_TO_SOT_SMD:SOT-23" H 4300 2775 50  0001 L CIN
F 3 "https://www.fairchildsemi.com/datasheets/BS/BSS138.pdf" H 4100 2850 50  0001 L CNN
	1    4100 2850
	-1   0    0    -1  
$EndComp
Text Label 3500 5600 2    50   ~ 0
PWR_BR
$Comp
L Device:R R17
U 1 1 5E5B654A
P 5450 2500
F 0 "R17" H 5520 2546 50  0000 L CNN
F 1 "10K" H 5520 2455 50  0000 L CNN
F 2 "Resistor_SMD:R_0603_1608Metric_Pad1.05x0.95mm_HandSolder" V 5380 2500 50  0001 C CNN
F 3 "~" H 5450 2500 50  0001 C CNN
	1    5450 2500
	1    0    0    -1  
$EndComp
Wire Wire Line
	5100 2650 5450 2650
Wire Wire Line
	5850 2650 5450 2650
Connection ~ 5450 2650
Wire Wire Line
	5450 2350 4800 2350
Wire Wire Line
	4800 2350 4800 2850
Wire Wire Line
	5450 2350 6150 2350
Wire Wire Line
	6150 2350 6150 2850
Connection ~ 5450 2350
Text Label 5450 2250 0    50   ~ 0
PWR_BR
Wire Wire Line
	5450 2250 5450 2350
$Comp
L power:+3.3V #PWR0124
U 1 1 5E5CBE7F
P 5850 3050
F 0 "#PWR0124" H 5850 2900 50  0001 C CNN
F 1 "+3.3V" H 5865 3223 50  0000 C CNN
F 2 "" H 5850 3050 50  0001 C CNN
F 3 "" H 5850 3050 50  0001 C CNN
	1    5850 3050
	-1   0    0    1   
$EndComp
$Comp
L power:+VSW #PWR0125
U 1 1 5E5D6642
P 5100 3050
F 0 "#PWR0125" H 5100 2900 50  0001 C CNN
F 1 "+VSW" H 5115 3223 50  0000 C CNN
F 2 "" H 5100 3050 50  0001 C CNN
F 3 "" H 5100 3050 50  0001 C CNN
	1    5100 3050
	-1   0    0    1   
$EndComp
$Comp
L power:GND #PWR0126
U 1 1 5E5E5ACD
P 3750 7300
F 0 "#PWR0126" H 3750 7050 50  0001 C CNN
F 1 "GND" H 3755 7127 50  0000 C CNN
F 2 "" H 3750 7300 50  0001 C CNN
F 3 "" H 3750 7300 50  0001 C CNN
	1    3750 7300
	1    0    0    -1  
$EndComp
Wire Wire Line
	3750 7300 4000 7300
Wire Wire Line
	4100 7300 4000 7300
Connection ~ 4000 7300
Connection ~ 4200 7300
Wire Wire Line
	4200 7300 4300 7300
Wire Wire Line
	4100 7300 4200 7300
Connection ~ 4100 7300
Wire Wire Line
	4300 7300 4400 7300
Connection ~ 4300 7300
Wire Wire Line
	4500 3700 4500 3800
Wire Wire Line
	3200 3700 4000 3700
Wire Wire Line
	4000 3800 4000 3700
Connection ~ 4000 3700
Wire Wire Line
	4000 3700 4100 3700
Wire Wire Line
	4100 3800 4100 3700
Connection ~ 4100 3700
Wire Wire Line
	4100 3700 4200 3700
Connection ~ 4200 3700
Wire Wire Line
	4200 3700 4300 3700
Wire Wire Line
	4200 3700 4200 3800
Wire Wire Line
	4300 3800 4300 3700
Connection ~ 4300 3700
Wire Wire Line
	4300 3700 4400 3700
Wire Wire Line
	4400 3800 4400 3700
Connection ~ 4400 3700
Wire Wire Line
	4400 3700 4500 3700
$Comp
L Device:R R1
U 1 1 5E6394C0
P 1150 1450
F 0 "R1" H 1220 1496 50  0000 L CNN
F 1 "100R" H 1220 1405 50  0000 L CNN
F 2 "Resistor_SMD:R_0603_1608Metric_Pad1.05x0.95mm_HandSolder" V 1080 1450 50  0001 C CNN
F 3 "~" H 1150 1450 50  0001 C CNN
	1    1150 1450
	0    -1   -1   0   
$EndComp
$Comp
L Device:R R6
U 1 1 5E63D666
P 2300 1550
F 0 "R6" H 2370 1596 50  0000 L CNN
F 1 "100R" H 2370 1505 50  0000 L CNN
F 2 "Resistor_SMD:R_0603_1608Metric_Pad1.05x0.95mm_HandSolder" V 2230 1550 50  0001 C CNN
F 3 "~" H 2300 1550 50  0001 C CNN
	1    2300 1550
	0    -1   -1   0   
$EndComp
$Comp
L Device:R R16
U 1 1 5E657645
P 5350 5850
F 0 "R16" H 5420 5896 50  0000 L CNN
F 1 "10K" H 5420 5805 50  0000 L CNN
F 2 "Resistor_SMD:R_0603_1608Metric_Pad1.05x0.95mm_HandSolder" V 5280 5850 50  0001 C CNN
F 3 "~" H 5350 5850 50  0001 C CNN
	1    5350 5850
	1    0    0    -1  
$EndComp
$Comp
L Device:R R15
U 1 1 5E657D11
P 5350 5550
F 0 "R15" H 5420 5596 50  0000 L CNN
F 1 "4K7" H 5420 5505 50  0000 L CNN
F 2 "Resistor_SMD:R_0603_1608Metric_Pad1.05x0.95mm_HandSolder" V 5280 5550 50  0001 C CNN
F 3 "~" H 5350 5550 50  0001 C CNN
	1    5350 5550
	1    0    0    -1  
$EndComp
Connection ~ 5350 5700
$Comp
L Device:C C10
U 1 1 5E65BDA6
P 5750 5850
F 0 "C10" H 5865 5896 50  0000 L CNN
F 1 "100n" H 5865 5805 50  0000 L CNN
F 2 "Capacitor_SMD:C_0603_1608Metric_Pad1.05x0.95mm_HandSolder" H 5788 5700 50  0001 C CNN
F 3 "~" H 5750 5850 50  0001 C CNN
	1    5750 5850
	1    0    0    -1  
$EndComp
Wire Wire Line
	5750 5700 5350 5700
$Comp
L power:GND #PWR0127
U 1 1 5E661DB1
P 5350 6000
F 0 "#PWR0127" H 5350 5750 50  0001 C CNN
F 1 "GND" H 5355 5827 50  0000 C CNN
F 2 "" H 5350 6000 50  0001 C CNN
F 3 "" H 5350 6000 50  0001 C CNN
	1    5350 6000
	1    0    0    -1  
$EndComp
Wire Wire Line
	5350 6000 5750 6000
Connection ~ 5350 6000
$Comp
L power:+VSW #PWR0128
U 1 1 5E676301
P 5350 5400
F 0 "#PWR0128" H 5350 5250 50  0001 C CNN
F 1 "+VSW" H 5365 5573 50  0000 C CNN
F 2 "" H 5350 5400 50  0001 C CNN
F 3 "" H 5350 5400 50  0001 C CNN
	1    5350 5400
	1    0    0    -1  
$EndComp
$Comp
L Device:C C7
U 1 1 5E69CEE3
P 2800 4450
F 0 "C7" H 2915 4496 50  0000 L CNN
F 1 "2.2u" H 2915 4405 50  0000 L CNN
F 2 "Capacitor_SMD:C_0603_1608Metric_Pad1.05x0.95mm_HandSolder" H 2838 4300 50  0001 C CNN
F 3 "~" H 2800 4450 50  0001 C CNN
	1    2800 4450
	1    0    0    -1  
$EndComp
Wire Wire Line
	3500 4400 3350 4400
Wire Wire Line
	3350 4400 3350 4600
Wire Wire Line
	2800 4300 3200 4300
Wire Wire Line
	2800 4600 3350 4600
$Comp
L Device:C C11
U 1 1 5E6CD56E
P 6200 1250
F 0 "C11" H 6315 1296 50  0000 L CNN
F 1 "100n" H 6315 1205 50  0000 L CNN
F 2 "Capacitor_SMD:C_0603_1608Metric_Pad1.05x0.95mm_HandSolder" H 6238 1100 50  0001 C CNN
F 3 "~" H 6200 1250 50  0001 C CNN
	1    6200 1250
	1    0    0    -1  
$EndComp
$Comp
L Device:C C9
U 1 1 5E6C4ED9
P 5750 1250
F 0 "C9" H 5865 1296 50  0000 L CNN
F 1 "100n" H 5865 1205 50  0000 L CNN
F 2 "Capacitor_SMD:C_0603_1608Metric_Pad1.05x0.95mm_HandSolder" H 5788 1100 50  0001 C CNN
F 3 "~" H 5750 1250 50  0001 C CNN
	1    5750 1250
	1    0    0    -1  
$EndComp
$Comp
L Device:C C12
U 1 1 5E6D6BE2
P 6650 1250
F 0 "C12" H 6765 1296 50  0000 L CNN
F 1 "100n" H 6765 1205 50  0000 L CNN
F 2 "Capacitor_SMD:C_0603_1608Metric_Pad1.05x0.95mm_HandSolder" H 6688 1100 50  0001 C CNN
F 3 "~" H 6650 1250 50  0001 C CNN
	1    6650 1250
	1    0    0    -1  
$EndComp
$Comp
L Device:C C13
U 1 1 5E6D726F
P 7100 1250
F 0 "C13" H 7215 1296 50  0000 L CNN
F 1 "100n" H 7215 1205 50  0000 L CNN
F 2 "Capacitor_SMD:C_0603_1608Metric_Pad1.05x0.95mm_HandSolder" H 7138 1100 50  0001 C CNN
F 3 "~" H 7100 1250 50  0001 C CNN
	1    7100 1250
	1    0    0    -1  
$EndComp
$Comp
L Device:C C14
U 1 1 5E6D7908
P 7550 1250
F 0 "C14" H 7665 1296 50  0000 L CNN
F 1 "100n" H 7665 1205 50  0000 L CNN
F 2 "Capacitor_SMD:C_0603_1608Metric_Pad1.05x0.95mm_HandSolder" H 7588 1100 50  0001 C CNN
F 3 "~" H 7550 1250 50  0001 C CNN
	1    7550 1250
	1    0    0    -1  
$EndComp
$Comp
L Device:C C15
U 1 1 5E6D7F07
P 8000 1250
F 0 "C15" H 8115 1296 50  0000 L CNN
F 1 "100n" H 8115 1205 50  0000 L CNN
F 2 "Capacitor_SMD:C_0603_1608Metric_Pad1.05x0.95mm_HandSolder" H 8038 1100 50  0001 C CNN
F 3 "~" H 8000 1250 50  0001 C CNN
	1    8000 1250
	1    0    0    -1  
$EndComp
$Comp
L power:+3.3V #PWR0129
U 1 1 5E6D850C
P 5750 1100
F 0 "#PWR0129" H 5750 950 50  0001 C CNN
F 1 "+3.3V" H 5765 1273 50  0000 C CNN
F 2 "" H 5750 1100 50  0001 C CNN
F 3 "" H 5750 1100 50  0001 C CNN
	1    5750 1100
	1    0    0    -1  
$EndComp
$Comp
L power:GND #PWR0130
U 1 1 5E6D8B8A
P 8000 1400
F 0 "#PWR0130" H 8000 1150 50  0001 C CNN
F 1 "GND" H 8005 1227 50  0000 C CNN
F 2 "" H 8000 1400 50  0001 C CNN
F 3 "" H 8000 1400 50  0001 C CNN
	1    8000 1400
	1    0    0    -1  
$EndComp
Wire Wire Line
	8000 1100 7550 1100
Connection ~ 5750 1100
Connection ~ 6200 1100
Wire Wire Line
	6200 1100 5750 1100
Connection ~ 6650 1100
Wire Wire Line
	6650 1100 6200 1100
Connection ~ 7100 1100
Wire Wire Line
	7100 1100 6650 1100
Connection ~ 7550 1100
Wire Wire Line
	7550 1100 7100 1100
Wire Wire Line
	5750 1400 6200 1400
Connection ~ 8000 1400
Connection ~ 6200 1400
Wire Wire Line
	6200 1400 6650 1400
Connection ~ 6650 1400
Wire Wire Line
	6650 1400 7100 1400
Connection ~ 7100 1400
Wire Wire Line
	7100 1400 7550 1400
Connection ~ 7550 1400
Wire Wire Line
	7550 1400 8000 1400
$Comp
L Device:C C1
U 1 1 5E6EF264
P 1400 2450
F 0 "C1" H 1515 2496 50  0000 L CNN
F 1 "100n" H 1515 2405 50  0000 L CNN
F 2 "Capacitor_SMD:C_0603_1608Metric_Pad1.05x0.95mm_HandSolder" H 1438 2300 50  0001 C CNN
F 3 "~" H 1400 2450 50  0001 C CNN
	1    1400 2450
	0    -1   -1   0   
$EndComp
Connection ~ 1550 2450
$Comp
L Device:C C4
U 1 1 5E6F20A1
P 1900 2450
F 0 "C4" H 2015 2496 50  0000 L CNN
F 1 "100n" H 2015 2405 50  0000 L CNN
F 2 "Capacitor_SMD:C_0603_1608Metric_Pad1.05x0.95mm_HandSolder" H 1938 2300 50  0001 C CNN
F 3 "~" H 1900 2450 50  0001 C CNN
	1    1900 2450
	0    -1   -1   0   
$EndComp
Connection ~ 1750 2450
$Comp
L Device:C C5
U 1 1 5E6F24A2
P 1900 3950
F 0 "C5" H 2015 3996 50  0000 L CNN
F 1 "100n" H 2015 3905 50  0000 L CNN
F 2 "Capacitor_SMD:C_0603_1608Metric_Pad1.05x0.95mm_HandSolder" H 1938 3800 50  0001 C CNN
F 3 "~" H 1900 3950 50  0001 C CNN
	1    1900 3950
	0    -1   -1   0   
$EndComp
Connection ~ 1750 3950
$Comp
L Device:C C2
U 1 1 5E6F3619
P 1400 3950
F 0 "C2" H 1515 3996 50  0000 L CNN
F 1 "100n" H 1515 3905 50  0000 L CNN
F 2 "Capacitor_SMD:C_0603_1608Metric_Pad1.05x0.95mm_HandSolder" H 1438 3800 50  0001 C CNN
F 3 "~" H 1400 3950 50  0001 C CNN
	1    1400 3950
	0    -1   -1   0   
$EndComp
Connection ~ 1550 3950
$Comp
L Device:C C3
U 1 1 5E6F39B9
P 1400 5450
F 0 "C3" H 1515 5496 50  0000 L CNN
F 1 "100n" H 1515 5405 50  0000 L CNN
F 2 "Capacitor_SMD:C_0603_1608Metric_Pad1.05x0.95mm_HandSolder" H 1438 5300 50  0001 C CNN
F 3 "~" H 1400 5450 50  0001 C CNN
	1    1400 5450
	0    -1   -1   0   
$EndComp
Connection ~ 1550 5450
$Comp
L Device:C C6
U 1 1 5E6F554A
P 1900 5450
F 0 "C6" H 2015 5496 50  0000 L CNN
F 1 "100n" H 2015 5405 50  0000 L CNN
F 2 "Capacitor_SMD:C_0603_1608Metric_Pad1.05x0.95mm_HandSolder" H 1938 5300 50  0001 C CNN
F 3 "~" H 1900 5450 50  0001 C CNN
	1    1900 5450
	0    -1   -1   0   
$EndComp
Connection ~ 1750 5450
$Comp
L power:GND #PWR0131
U 1 1 5E6F5E1D
P 1250 5450
F 0 "#PWR0131" H 1250 5200 50  0001 C CNN
F 1 "GND" H 1255 5277 50  0000 C CNN
F 2 "" H 1250 5450 50  0001 C CNN
F 3 "" H 1250 5450 50  0001 C CNN
	1    1250 5450
	0    1    1    0   
$EndComp
$Comp
L power:GND #PWR0132
U 1 1 5E6FD95E
P 1250 3950
F 0 "#PWR0132" H 1250 3700 50  0001 C CNN
F 1 "GND" H 1255 3777 50  0000 C CNN
F 2 "" H 1250 3950 50  0001 C CNN
F 3 "" H 1250 3950 50  0001 C CNN
	1    1250 3950
	0    1    1    0   
$EndComp
$Comp
L power:GND #PWR0133
U 1 1 5E6FE9D7
P 1250 2450
F 0 "#PWR0133" H 1250 2200 50  0001 C CNN
F 1 "GND" H 1255 2277 50  0000 C CNN
F 2 "" H 1250 2450 50  0001 C CNN
F 3 "" H 1250 2450 50  0001 C CNN
	1    1250 2450
	0    1    1    0   
$EndComp
$Comp
L power:GND #PWR0134
U 1 1 5E700AFE
P 2050 2450
F 0 "#PWR0134" H 2050 2200 50  0001 C CNN
F 1 "GND" H 2055 2277 50  0000 C CNN
F 2 "" H 2050 2450 50  0001 C CNN
F 3 "" H 2050 2450 50  0001 C CNN
	1    2050 2450
	0    -1   -1   0   
$EndComp
$Comp
L power:GND #PWR0135
U 1 1 5E702519
P 2050 3950
F 0 "#PWR0135" H 2050 3700 50  0001 C CNN
F 1 "GND" H 2055 3777 50  0000 C CNN
F 2 "" H 2050 3950 50  0001 C CNN
F 3 "" H 2050 3950 50  0001 C CNN
	1    2050 3950
	0    -1   -1   0   
$EndComp
$Comp
L power:GND #PWR0136
U 1 1 5E703E8E
P 2050 5450
F 0 "#PWR0136" H 2050 5200 50  0001 C CNN
F 1 "GND" H 2055 5277 50  0000 C CNN
F 2 "" H 2050 5450 50  0001 C CNN
F 3 "" H 2050 5450 50  0001 C CNN
	1    2050 5450
	0    -1   -1   0   
$EndComp
$Comp
L Device:C C18
U 1 1 5E70D343
P 10100 4750
F 0 "C18" H 10215 4796 50  0000 L CNN
F 1 "100n" H 10215 4705 50  0000 L CNN
F 2 "Capacitor_SMD:C_0603_1608Metric_Pad1.05x0.95mm_HandSolder" H 10138 4600 50  0001 C CNN
F 3 "~" H 10100 4750 50  0001 C CNN
	1    10100 4750
	0    -1   -1   0   
$EndComp
$Comp
L power:GND #PWR0137
U 1 1 5E70DC76
P 9950 5550
F 0 "#PWR0137" H 9950 5300 50  0001 C CNN
F 1 "GND" H 9955 5377 50  0000 C CNN
F 2 "" H 9950 5550 50  0001 C CNN
F 3 "" H 9950 5550 50  0001 C CNN
	1    9950 5550
	1    0    0    -1  
$EndComp
$Comp
L power:GND #PWR0138
U 1 1 5E70E17C
P 10250 4750
F 0 "#PWR0138" H 10250 4500 50  0001 C CNN
F 1 "GND" H 10255 4577 50  0000 C CNN
F 2 "" H 10250 4750 50  0001 C CNN
F 3 "" H 10250 4750 50  0001 C CNN
	1    10250 4750
	0    -1   -1   0   
$EndComp
$Comp
L power:+3.3V #PWR0139
U 1 1 5E718770
P 9950 4550
F 0 "#PWR0139" H 9950 4400 50  0001 C CNN
F 1 "+3.3V" H 9965 4723 50  0000 C CNN
F 2 "" H 9950 4550 50  0001 C CNN
F 3 "" H 9950 4550 50  0001 C CNN
	1    9950 4550
	1    0    0    -1  
$EndComp
Wire Wire Line
	9950 4550 9950 4750
Connection ~ 9950 4750
Text Label 4900 7100 0    50   ~ 0
MOSI
Text Label 10350 4950 0    50   ~ 0
MISO
Text Label 4900 6900 0    50   ~ 0
SCK
Text Label 4900 7000 0    50   ~ 0
MISO
Text Label 9550 4950 2    50   ~ 0
MOSI
Text Label 8900 5050 2    50   ~ 0
FLASH_NRST
Text Label 4900 6800 0    50   ~ 0
FLASH_NSS
Text Label 9550 5250 2    50   ~ 0
FLASH_NSS
Text Label 9550 5350 2    50   ~ 0
SCK
$Comp
L power:GND #PWR0140
U 1 1 5E751033
P 8900 5350
F 0 "#PWR0140" H 8900 5100 50  0001 C CNN
F 1 "GND" H 8905 5177 50  0000 C CNN
F 2 "" H 8900 5350 50  0001 C CNN
F 3 "" H 8900 5350 50  0001 C CNN
	1    8900 5350
	1    0    0    -1  
$EndComp
$Comp
L Device:R R18
U 1 1 5E75729F
P 8900 5200
F 0 "R18" H 8970 5246 50  0000 L CNN
F 1 "10K" H 8970 5155 50  0000 L CNN
F 2 "Resistor_SMD:R_0603_1608Metric_Pad1.05x0.95mm_HandSolder" V 8830 5200 50  0001 C CNN
F 3 "~" H 8900 5200 50  0001 C CNN
	1    8900 5200
	1    0    0    -1  
$EndComp
Text Label 4900 6700 0    50   ~ 0
FLASH_NRST
Wire Wire Line
	9950 4750 9300 4750
Wire Wire Line
	9300 4750 9300 5150
Wire Wire Line
	9300 5150 9550 5150
Wire Wire Line
	9550 5050 8900 5050
$Comp
L Device:R R9
U 1 1 5E7A06C7
P 3350 1450
F 0 "R9" H 3420 1496 50  0000 L CNN
F 1 "100R" H 3420 1405 50  0000 L CNN
F 2 "Resistor_SMD:R_0603_1608Metric_Pad1.05x0.95mm_HandSolder" V 3280 1450 50  0001 C CNN
F 3 "~" H 3350 1450 50  0001 C CNN
	1    3350 1450
	0    -1   -1   0   
$EndComp
$Comp
L Device:R R14
U 1 1 5E7A6D34
P 4500 1550
F 0 "R14" H 4570 1596 50  0000 L CNN
F 1 "100R" H 4570 1505 50  0000 L CNN
F 2 "Resistor_SMD:R_0603_1608Metric_Pad1.05x0.95mm_HandSolder" V 4430 1550 50  0001 C CNN
F 3 "~" H 4500 1550 50  0001 C CNN
	1    4500 1550
	0    -1   -1   0   
$EndComp
$Comp
L Regulator_Linear:LD1117S33TR_SOT223 U6
U 1 1 5E7C5584
P 9600 1200
F 0 "U6" H 9600 1442 50  0000 C CNN
F 1 "LD1117S33TR_SOT223" H 9600 1351 50  0000 C CNN
F 2 "Package_TO_SOT_SMD:SOT-223-3_TabPin2" H 9600 1400 50  0001 C CNN
F 3 "http://www.st.com/st-web-ui/static/active/en/resource/technical/document/datasheet/CD00000544.pdf" H 9700 950 50  0001 C CNN
	1    9600 1200
	1    0    0    -1  
$EndComp
$Comp
L Device:C C17
U 1 1 5E7C62B2
P 9000 1350
F 0 "C17" H 9115 1396 50  0000 L CNN
F 1 "100n" H 9115 1305 50  0000 L CNN
F 2 "Capacitor_SMD:C_0603_1608Metric_Pad1.05x0.95mm_HandSolder" H 9038 1200 50  0001 C CNN
F 3 "~" H 9000 1350 50  0001 C CNN
	1    9000 1350
	1    0    0    -1  
$EndComp
$Comp
L Device:C C19
U 1 1 5E7C6BCC
P 10150 1350
F 0 "C19" H 10265 1396 50  0000 L CNN
F 1 "100n" H 10265 1305 50  0000 L CNN
F 2 "Capacitor_SMD:C_0603_1608Metric_Pad1.05x0.95mm_HandSolder" H 10188 1200 50  0001 C CNN
F 3 "~" H 10150 1350 50  0001 C CNN
	1    10150 1350
	1    0    0    -1  
$EndComp
$Comp
L power:+3.3V #PWR0141
U 1 1 5E7CA1F8
P 10600 1200
F 0 "#PWR0141" H 10600 1050 50  0001 C CNN
F 1 "+3.3V" H 10615 1373 50  0000 C CNN
F 2 "" H 10600 1200 50  0001 C CNN
F 3 "" H 10600 1200 50  0001 C CNN
	1    10600 1200
	1    0    0    -1  
$EndComp
$Comp
L power:+5V #PWR0142
U 1 1 5E7CF1A9
P 8650 1200
F 0 "#PWR0142" H 8650 1050 50  0001 C CNN
F 1 "+5V" V 8665 1328 50  0000 L CNN
F 2 "" H 8650 1200 50  0001 C CNN
F 3 "" H 8650 1200 50  0001 C CNN
	1    8650 1200
	1    0    0    -1  
$EndComp
$Comp
L power:GND #PWR0143
U 1 1 5E7D2D6C
P 9600 1500
F 0 "#PWR0143" H 9600 1250 50  0001 C CNN
F 1 "GND" H 9605 1327 50  0000 C CNN
F 2 "" H 9600 1500 50  0001 C CNN
F 3 "" H 9600 1500 50  0001 C CNN
	1    9600 1500
	1    0    0    -1  
$EndComp
Wire Wire Line
	9600 1500 9000 1500
Connection ~ 9600 1500
Connection ~ 9000 1500
Wire Wire Line
	9000 1500 8650 1500
Wire Wire Line
	8650 1200 9000 1200
Connection ~ 9000 1200
Wire Wire Line
	9000 1200 9300 1200
Wire Wire Line
	9900 1200 10150 1200
Connection ~ 10150 1200
Wire Wire Line
	10150 1200 10600 1200
Wire Wire Line
	10600 1500 10150 1500
Connection ~ 10150 1500
Wire Wire Line
	10150 1500 9600 1500
Wire Notes Line
	11050 1900 8400 1900
Wire Notes Line
	8400 1900 8400 650 
Wire Notes Line
	8400 650  11050 650 
Wire Notes Line
	11050 650  11050 1900
Text Notes 8450 850  0    118  ~ 0
5V to 3.3V (LDO)
Wire Notes Line
	8200 4250 11150 4250
Wire Notes Line
	11150 4250 11150 5800
Wire Notes Line
	11150 5800 8200 5800
Wire Notes Line
	8200 5800 8200 4250
Text Notes 8250 4450 0    118  ~ 0
SPI Flash
Wire Notes Line
	2500 6800 2500 1850
Wire Notes Line
	2500 1850 700  1850
Wire Notes Line
	700  1850 700  6800
Wire Notes Line
	700  6800 2500 6800
Text Notes 800  2050 0    118  ~ 0
Level Shifter
Text Label 4650 1550 0    50   ~ 0
NRST
Text Label 3100 4000 2    50   ~ 0
NRST
Wire Wire Line
	3100 4000 3200 4000
Wire Notes Line
	700  1800 2950 1800
Wire Notes Line
	11150 4200 8000 4200
Wire Notes Line
	8000 4200 8000 1950
Wire Notes Line
	11150 4200 11150 1950
Wire Notes Line
	8000 1950 11150 1950
$Comp
L power:+3.3V #PWR0144
U 1 1 5E8B6648
P 4500 3700
F 0 "#PWR0144" H 4500 3550 50  0001 C CNN
F 1 "+3.3V" H 4515 3873 50  0000 C CNN
F 2 "" H 4500 3700 50  0001 C CNN
F 3 "" H 4500 3700 50  0001 C CNN
	1    4500 3700
	1    0    0    -1  
$EndComp
Connection ~ 4500 3700
Text Notes 8050 2150 0    118  ~ 0
USB Connector
Text Notes 750  850  0    118  ~ 0
Target Debug Connector
Wire Notes Line
	700  1750 700  650 
Wire Notes Line
	700  650  2950 650 
Wire Notes Line
	2950 650  2950 1800
Wire Notes Line
	3000 1800 3000 650 
Wire Notes Line
	5500 650  5500 1800
Text Notes 3050 850  0    118  ~ 0
Debug Connector
Wire Notes Line
	4550 3300 2550 3300
Wire Notes Line
	2550 1850 4550 1850
Wire Notes Line
	2550 1850 2550 3300
Wire Notes Line
	4550 1850 4550 3300
Text Notes 2600 2050 0    118  ~ 0
Target Reset
Text Notes 5600 850  0    118  ~ 0
uC decoupling
Wire Wire Line
	5350 5700 4900 5700
Wire Notes Line
	4650 3300 6250 3300
Wire Notes Line
	6250 3300 6250 1850
Wire Notes Line
	6250 1850 4650 1850
Wire Notes Line
	4650 1850 4650 3300
Text Notes 4700 2050 0    118  ~ 0
Target Power
Wire Wire Line
	10500 2300 10200 2300
$Comp
L Device:LED D3
U 1 1 5E56E8AC
P 3250 6900
F 0 "D3" H 3243 6645 50  0000 C CNN
F 1 "LED" H 3243 6736 50  0000 C CNN
F 2 "LED_SMD:LED_0603_1608Metric_Pad1.05x0.95mm_HandSolder" H 3250 6900 50  0001 C CNN
F 3 "~" H 3250 6900 50  0001 C CNN
	1    3250 6900
	1    0    0    -1  
$EndComp
$Comp
L Device:LED D2
U 1 1 5E56FA0F
P 3250 6700
F 0 "D2" H 3243 6445 50  0000 C CNN
F 1 "LED" H 3243 6536 50  0000 C CNN
F 2 "LED_SMD:LED_0603_1608Metric_Pad1.05x0.95mm_HandSolder" H 3250 6700 50  0001 C CNN
F 3 "~" H 3250 6700 50  0001 C CNN
	1    3250 6700
	1    0    0    -1  
$EndComp
$Comp
L Device:LED D1
U 1 1 5E570237
P 3250 6500
F 0 "D1" H 3243 6245 50  0000 C CNN
F 1 "LED" H 3243 6336 50  0000 C CNN
F 2 "LED_SMD:LED_0603_1608Metric_Pad1.05x0.95mm_HandSolder" H 3250 6500 50  0001 C CNN
F 3 "~" H 3250 6500 50  0001 C CNN
	1    3250 6500
	1    0    0    -1  
$EndComp
$Comp
L Device:LED D4
U 1 1 5E5709B5
P 7000 2650
F 0 "D4" V 7039 2533 50  0000 R CNN
F 1 "LED" V 6948 2533 50  0000 R CNN
F 2 "LED_SMD:LED_0603_1608Metric_Pad1.05x0.95mm_HandSolder" H 7000 2650 50  0001 C CNN
F 3 "~" H 7000 2650 50  0001 C CNN
	1    7000 2650
	0    -1   -1   0   
$EndComp
$Comp
L power:GND #PWR0145
U 1 1 5E590BB9
P 2800 7000
F 0 "#PWR0145" H 2800 6750 50  0001 C CNN
F 1 "GND" H 2805 6827 50  0000 C CNN
F 2 "" H 2800 7000 50  0001 C CNN
F 3 "" H 2800 7000 50  0001 C CNN
	1    2800 7000
	1    0    0    -1  
$EndComp
$Comp
L power:+VSW #PWR0146
U 1 1 5E5C8DA0
P 7000 2500
F 0 "#PWR0146" H 7000 2350 50  0001 C CNN
F 1 "+VSW" H 7015 2673 50  0000 C CNN
F 2 "" H 7000 2500 50  0001 C CNN
F 3 "" H 7000 2500 50  0001 C CNN
	1    7000 2500
	1    0    0    -1  
$EndComp
$Comp
L Device:R R24
U 1 1 5E5CE7AE
P 7000 2950
F 0 "R24" H 7070 2996 50  0000 L CNN
F 1 "100R" H 7070 2905 50  0000 L CNN
F 2 "Resistor_SMD:R_0603_1608Metric_Pad1.05x0.95mm_HandSolder" V 6930 2950 50  0001 C CNN
F 3 "~" H 7000 2950 50  0001 C CNN
	1    7000 2950
	1    0    0    -1  
$EndComp
$Comp
L power:GND #PWR0147
U 1 1 5E5D1324
P 7000 3100
F 0 "#PWR0147" H 7000 2850 50  0001 C CNN
F 1 "GND" H 7005 2927 50  0000 C CNN
F 2 "" H 7000 3100 50  0001 C CNN
F 3 "" H 7000 3100 50  0001 C CNN
	1    7000 3100
	1    0    0    -1  
$EndComp
Wire Notes Line
	8350 650  5550 650 
Wire Notes Line
	5550 650  5550 1800
Wire Notes Line
	8350 1800 8350 650 
Wire Notes Line
	5550 1800 8350 1800
$Comp
L Device:R R25
U 1 1 5E5BBC94
P 3200 1300
F 0 "R25" H 3270 1346 50  0000 L CNN
F 1 "100K" H 3270 1255 50  0000 L CNN
F 2 "Resistor_SMD:R_0603_1608Metric_Pad1.05x0.95mm_HandSolder" V 3130 1300 50  0001 C CNN
F 3 "~" H 3200 1300 50  0001 C CNN
	1    3200 1300
	1    0    0    -1  
$EndComp
Wire Wire Line
	3500 1150 3200 1150
Connection ~ 3500 1150
$Comp
L Device:R R27
U 1 1 5E5C1570
P 5050 1400
F 0 "R27" H 5120 1446 50  0000 L CNN
F 1 "100K" H 5120 1355 50  0000 L CNN
F 2 "Resistor_SMD:R_0603_1608Metric_Pad1.05x0.95mm_HandSolder" V 4980 1400 50  0001 C CNN
F 3 "~" H 5050 1400 50  0001 C CNN
	1    5050 1400
	1    0    0    -1  
$EndComp
$Comp
L Device:R R26
U 1 1 5E5C24BF
P 4900 1000
F 0 "R26" H 4970 1046 50  0000 L CNN
F 1 "100K" H 4970 955 50  0000 L CNN
F 2 "Resistor_SMD:R_0603_1608Metric_Pad1.05x0.95mm_HandSolder" V 4830 1000 50  0001 C CNN
F 3 "~" H 4900 1000 50  0001 C CNN
	1    4900 1000
	1    0    0    -1  
$EndComp
Wire Wire Line
	5100 1150 4900 1150
Connection ~ 4900 1150
Wire Wire Line
	4900 1150 4750 1150
Wire Wire Line
	4750 1250 5050 1250
Connection ~ 5050 1250
Wire Wire Line
	5050 1250 5100 1250
$Comp
L power:GND #PWR0148
U 1 1 5E5CBD5C
P 5050 1550
F 0 "#PWR0148" H 5050 1300 50  0001 C CNN
F 1 "GND" H 5055 1377 50  0000 C CNN
F 2 "" H 5050 1550 50  0001 C CNN
F 3 "" H 5050 1550 50  0001 C CNN
	1    5050 1550
	1    0    0    -1  
$EndComp
$Comp
L power:+3.3V #PWR0149
U 1 1 5E5CC072
P 4900 850
F 0 "#PWR0149" H 4900 700 50  0001 C CNN
F 1 "+3.3V" H 4915 1023 50  0000 C CNN
F 2 "" H 4900 850 50  0001 C CNN
F 3 "" H 4900 850 50  0001 C CNN
	1    4900 850 
	1    0    0    -1  
$EndComp
Wire Notes Line
	3000 650  5500 650 
Wire Notes Line
	3000 1800 5500 1800
$Comp
L Device:Crystal Y1
U 1 1 5EB08EAD
P 3100 5100
F 0 "Y1" V 3054 5231 50  0000 L CNN
F 1 "Crystal" V 3145 5231 50  0000 L CNN
F 2 "Crystal:Crystal_SMD_HC49-SD_HandSoldering" H 3100 5100 50  0001 C CNN
F 3 "~" H 3100 5100 50  0001 C CNN
	1    3100 5100
	0    1    1    0   
$EndComp
$Comp
L Device:C C21
U 1 1 5EB0BEB8
P 2800 4950
F 0 "C21" V 2548 4950 50  0000 C CNN
F 1 "32pF" V 2639 4950 50  0000 C CNN
F 2 "Capacitor_SMD:C_0603_1608Metric_Pad1.05x0.95mm_HandSolder" H 2838 4800 50  0001 C CNN
F 3 "~" H 2800 4950 50  0001 C CNN
	1    2800 4950
	0    1    1    0   
$EndComp
$Comp
L Device:C C22
U 1 1 5EB0CDFF
P 2800 5250
F 0 "C22" V 2548 5250 50  0000 C CNN
F 1 "32pF" V 2639 5250 50  0000 C CNN
F 2 "Capacitor_SMD:C_0603_1608Metric_Pad1.05x0.95mm_HandSolder" H 2838 5100 50  0001 C CNN
F 3 "~" H 2800 5250 50  0001 C CNN
	1    2800 5250
	0    1    1    0   
$EndComp
$Comp
L power:GND #PWR0150
U 1 1 5EB0D26B
P 2650 5350
F 0 "#PWR0150" H 2650 5100 50  0001 C CNN
F 1 "GND" H 2655 5177 50  0000 C CNN
F 2 "" H 2650 5350 50  0001 C CNN
F 3 "" H 2650 5350 50  0001 C CNN
	1    2650 5350
	1    0    0    -1  
$EndComp
Wire Wire Line
	2650 5350 2650 5250
Connection ~ 2650 5250
Wire Wire Line
	2650 5250 2650 4950
Wire Wire Line
	2950 4950 3100 4950
Wire Wire Line
	2950 5250 3100 5250
Wire Wire Line
	3100 5250 3400 5250
Wire Wire Line
	3400 5250 3400 5200
Wire Wire Line
	3400 5200 3500 5200
Connection ~ 3100 5250
Wire Wire Line
	3100 4950 3400 4950
Wire Wire Line
	3400 4950 3400 5100
Wire Wire Line
	3400 5100 3500 5100
Connection ~ 3100 4950
$Comp
L Device:R_Pack04 RN1
U 1 1 5EB8ABBB
P 2350 1350
F 0 "RN1" V 1933 1350 50  0000 C CNN
F 1 "R_Pack04" V 2024 1350 50  0000 C CNN
F 2 "Resistor_SMD:R_Array_Convex_4x0402" V 2625 1350 50  0001 C CNN
F 3 "~" H 2350 1350 50  0001 C CNN
	1    2350 1350
	0    1    1    0   
$EndComp
$Comp
L Device:R_Pack04 RN3
U 1 1 5EBF5864
P 4550 1350
F 0 "RN3" V 4133 1350 50  0000 C CNN
F 1 "R_Pack04" V 4224 1350 50  0000 C CNN
F 2 "Resistor_SMD:R_Array_Convex_4x0402" V 4825 1350 50  0001 C CNN
F 3 "~" H 4550 1350 50  0001 C CNN
	1    4550 1350
	0    1    1    0   
$EndComp
$Comp
L Device:R_Pack04 RN2
U 1 1 5EC18B9E
P 2800 6700
F 0 "RN2" V 2383 6700 50  0000 C CNN
F 1 "R_Pack04" V 2474 6700 50  0000 C CNN
F 2 "Resistor_SMD:R_Array_Convex_4x0402" V 3075 6700 50  0001 C CNN
F 3 "~" H 2800 6700 50  0001 C CNN
	1    2800 6700
	0    1    1    0   
$EndComp
Wire Wire Line
	3100 6500 3000 6500
Wire Wire Line
	3100 6700 3100 6600
Wire Wire Line
	3100 6600 3000 6600
Wire Wire Line
	3100 6900 3050 6900
Wire Wire Line
	3050 6900 3050 6700
Wire Wire Line
	3050 6700 3000 6700
Wire Wire Line
	2600 6500 2600 6600
Wire Wire Line
	2600 7000 2800 7000
Connection ~ 2600 6600
Wire Wire Line
	2600 6600 2600 6700
Connection ~ 2600 6700
Wire Wire Line
	2600 6700 2600 6800
Connection ~ 2600 6800
Wire Wire Line
	2600 6800 2600 7000
Wire Wire Line
	3500 6700 3400 6700
Wire Wire Line
	3400 6500 3400 6600
Wire Wire Line
	3400 6600 3500 6600
Wire Wire Line
	3400 6900 3400 6800
Wire Wire Line
	3400 6800 3500 6800
$Comp
L Device:C C20
U 1 1 5EDB1494
P 10600 1350
F 0 "C20" H 10715 1396 50  0000 L CNN
F 1 "10u" H 10715 1305 50  0000 L CNN
F 2 "Capacitor_SMD:C_0805_2012Metric_Pad1.15x1.40mm_HandSolder" H 10638 1200 50  0001 C CNN
F 3 "~" H 10600 1350 50  0001 C CNN
	1    10600 1350
	1    0    0    -1  
$EndComp
Connection ~ 10600 1200
$Comp
L Device:C C16
U 1 1 5EDB1B27
P 8650 1350
F 0 "C16" H 8765 1396 50  0000 L CNN
F 1 "10u" H 8765 1305 50  0000 L CNN
F 2 "Capacitor_SMD:C_0805_2012Metric_Pad1.15x1.40mm_HandSolder" H 8688 1200 50  0001 C CNN
F 3 "~" H 8650 1350 50  0001 C CNN
	1    8650 1350
	1    0    0    -1  
$EndComp
Connection ~ 8650 1200
$Comp
L Connector:TestPoint TP2
U 1 1 5EB70BCC
P 9000 1200
F 0 "TP2" H 9058 1318 50  0000 L CNN
F 1 "TestPoint" H 9058 1227 50  0000 L CNN
F 2 "TestPoint:TestPoint_Pad_D1.0mm" H 9200 1200 50  0001 C CNN
F 3 "~" H 9200 1200 50  0001 C CNN
	1    9000 1200
	1    0    0    -1  
$EndComp
$Comp
L Connector:TestPoint TP5
U 1 1 5EB75C76
P 10150 1200
F 0 "TP5" H 10208 1318 50  0000 L CNN
F 1 "TestPoint" H 10208 1227 50  0000 L CNN
F 2 "TestPoint:TestPoint_Pad_D1.0mm" H 10350 1200 50  0001 C CNN
F 3 "~" H 10350 1200 50  0001 C CNN
	1    10150 1200
	1    0    0    -1  
$EndComp
$Comp
L Connector:TestPoint TP6
U 1 1 5EB76611
P 10150 1500
F 0 "TP6" H 10092 1526 50  0000 R CNN
F 1 "TestPoint" H 10092 1617 50  0000 R CNN
F 2 "TestPoint:TestPoint_Pad_D1.0mm" H 10350 1500 50  0001 C CNN
F 3 "~" H 10350 1500 50  0001 C CNN
	1    10150 1500
	-1   0    0    1   
$EndComp
$EndSCHEMATC
